[
  {
    "title": "PHASE Arbitrage",
    "groupTitle" : true
  },
	{
    "title": "PHASE 1 Basic Arbitrage",
    "icon": {
      "class": "fa fa-diamond",
      "bg": "green",
      "color": "wheat"
		},
    "routing": "/default-layout/typography",
    "sub": [
			{
        "title": "Bx To Binance",
        "routing": "/Archelon/bx-binance"
			},
			{
        "title": "Bx To Okex",
        "routing": "/Archelon/bx-okex"
			},
			{
        "title": "Bx To Bittrex",
        "routing": "/Archelon/bx-bittrex"
      },
      {
        "title": "Binance To Bx",
        "routing": "/Archelon/binance-bx"
      },
      {
        "title": "Okex To Bx",
        "routing": "/Archelon/okex-bx"
      },
      {
        "title": "Bittrex To Bx",
        "routing": "/Archelon/bittrex-bx"
      }
		]
  },
  {
    "title": "PHASE 2 Triangular Arbitrage",
    "icon": {
      "class": "fa fa-diamond",
      "bg": "blue",
      "color": "wheat"
		},
    "routing": "/default-layout/typography",
    "sub": [
			{
        "title": "2.1 Bx To Binance",
        "routing": "/Archelon/ph21-bx-binance"
			},
			{
        "title": "2.2 Bx To Binance",
        "routing": "/Archelon/ph22-bx-binance"
			},
			{
        "title": "2.3 Binance To Bx",
        "routing": "/Archelon/ph23-binance-bx"
      },
      {
        "title": "2.4 Binance To Bx",
        "routing": "/Archelon/ph24-binance-bx"
      }
		]
  },
  {
    "title": "PHASE 3 Swap",
    "icon": {
      "class": "fa fa-diamond",
      "bg": "red",
      "color": "wheat"
		},
    "routing": "/default-layout/typography",
    "sub": [
			{
        "title": "BTC [Binance & Bx]",
        "routing": "/Archelon/ph3-btc-binance-bx"
			},
			{
        "title": "BSV [Okex & Bx]",
        "routing": "/Archelon/ph3-bsv-okex-bx"
			},
			{
        "title": "EVX [Binance & Bx]",
        "routing": "/Archelon/ph3-evx-binance-bx"
      },
      {
        "title": "LTC [Binance & Bx]",
        "routing": "/Archelon/ph3-ltc-binance-bx"
      },
      {
        "title": "XZC [Binance & Bx]",
        "routing": "/Archelon/ph3-xzc-binance-bx"
      },
      {
        "title": "ZEC [Binance & Bx]",
        "routing": "/Archelon/ph21-zec-binance-bx"
      }
		]
  },
  {
    "title": "Setting & Calculate",
    "groupTitle" : true
  },
  {
    "title": "Rebalance",
    "icon": {
      "class": "fa fa-briefcase",
      "bg": "#B3E5FC",
      "color": "rgba(0,0,0,.87)"
		},
    "routing": "/Archelon/rebalance"
  },
  {
    "title": "USD For Calculate",
    "icon": {
      "class": "fa fa-table",
      "bg": "#FFE082",
      "color": "rgba(0,0,0,.87)"
		},
    "routing": "/Archelon/usd-For-Calculate"
  },
  {
    "title": "BTC For Calculate",
    "icon": {
      "class": "fa fa-th",
      "bg": "#E1BEE7",
      "color": "rgba(0,0,0,.87)"
		},
    "routing": "/Archelon/btc-For-Calculate"
  },
  {
    "title": "Grap",
    "groupTitle" : true
  },
  {
    "title": "Grap Compare",
    "icon": {
      "class": "fa fa-line-chart",
      "bg": "#24cc06",
      "color": "rgba(0,0,0,.87)"
		},
    "routing": "/Archelon/grap-compare"
  }
]
